7.5 arrange | Intermediate R: introduction to data wrangling with the Tidyverse (2021)
…
# group storms by name and calculate minimum wind speed
storms %>%
  group_by(name) %>%
  summarise(min_wind = min(wind))

Calculate the minimum wind speed for each storm (name).
* What storm has the smallest minimum wind speed?

# sort by increasing minimum wind speed
storms %>%
  group_by(name) %>%
  summarise(min_wind = min(wind)) %>%
  arrange(min_wind)

## # A tibble: 198 x 2
##    name      min_wind
##    <chr>        <int>
##  1 AL031987        10
##  2 Alberto         10
##  3 Bonnie          10
##  4 AL021994        15
##  5 AL072003        15
##  6 Allison         15
##  7 Barry           15
##  8 Beryl           15
##  9 Claudette       15
## 10 Fay             15
## # … with 188 more rows
…
# get unique rows when considering both name and year columns
distinct(storms, name, year)

# group by year and count the number of storms
distinct(storms, name, year) %>%
  group_by(year) %>%
  summarise(storms_per_year=n())

# sort by decreasing number of storms
distinct(storms, name, year) %>%
  group_by(year) %>%
  summarise(storms_per_year=n()) %>%
  arrange(desc(storms_per_year))

## # A tibble: 41 x 2
##     year storms_per_year
##    <dbl>           <int>
##  1  1995              21
##  2  2005              21
##  3  2003              20
##  4  2010              20
##  5  2001              17
##  6  2012              17
##  7  2000              16
##  8  2007              16
##  9  2011              15
## 10  2008              14
## # … with 31 more rows
