3.5 Subsetting / manipulating tibbles | Intermediate R: introduction to data wrangling with the Tidyverse (2021)
…
##  [1] "A" "B" "C" "D" "E" "F" "G" "H" "I" "J" "K" "L" "M" "N" "O" "P" "Q" "R" "S" "T" "U" "V" "W" "X" "Y"
## [26] "Z"

# or the [[]]
mytibble[["letters"]]

##  [1] "A" "B" "C" "D" "E" "F" "G" "H" "I" "J" "K" "L" "M" "N" "O" "P" "Q" "R" "S" "T" "U" "V" "W" "X" "Y"
## [26] "Z"

# Note: with simple square brackets, you extract a sub-tibble (it remains a 2 dimensional object)
mytibble["letters"]

## # A tibble: 26 x 1
##    letters
##    <chr>  
##  1 A      
##  2 B      
##  3 C      
##  4 D      
##  5 E      
##  6 F      
##  7 G      
##  8 H      
##  9 I      
## 10 J      
## # … with 16 more rows

Extract column by position/index:

# sub-tibble with one column
mytibble[, 1]

## # A tibble: 26 x 1
##    letters
##    <chr>  
##  1 A      
##  2 B      
##  3 C      
##  4 D      
##  5 E      
##  6 F      
##  7 G      
##  8 H      
##  9 I      
## 10 J      
## # … with 16 more rows
…
