7.4 summarise & group_by | Intermediate R: introduction to data wrangling with the Tidyverse (2021)
…
Grouping variables also influences how other dplyr functions work!

For example, let’s group our starwars characters by both species and gender variables:

sw_sg <- group_by(starwars, 
                  species, gender) 

We can then use slice_max (function that retrieves the row that contains the maximum value in a selected variable) to retrieve the character with the maximum height:

sw_sg %>% 
  select(name, species, gender, height) %>% # columns selection just to make the output more readable
  slice_max(height)

## # A tibble: 43 x 4
## # Groups:   species, gender [42]
##    name                  species   gender    height
##    <chr>                 <chr>     <chr>      <int>
##  1 Ratts Tyerell         Aleena    masculine     79
##  2 Dexter Jettster       Besalisk  masculine    198
##  3 Ki-Adi-Mundi          Cerean    masculine    198
##  4 Mas Amedda            Chagrian  masculine    196
##  5 Zam Wesell            Clawdite  feminine     168
##  6 R4-P17                Droid     feminine      96
##  7 IG-88                 Droid     masculine    200
##  8 Sebulba               Dug       masculine    112
##  9 Wicket Systri Warrick Ewok      masculine     88
## 10 Poggle the Lesser     Geonosian masculine    183
## # … with 33 more rows
…
Another example is that you can create new columns (with mutate) based on the grouping.

Here we are grouping the data by species and we add a column average_height_species that describes the average height.

As the data is grouped by species, we will get the average height PER SPECIES:

starwars %>% group_by(species) %>% 
  select(name, species, height, mass) %>% 
  mutate(average_height_species=mean(height, na.rm=TRUE))

## # A tibble: 87 x 5
## # Groups:   species [38]
##    name               species height  mass average_height_species
##    <chr>              <chr>    <int> <dbl>                  <dbl>
##  1 Luke Skywalker     Human      172    77                   177.
##  2 C-3PO              Droid      167    75                   131.
##  3 R2-D2              Droid       96    32                   131.
##  4 Darth Vader        Human      202   136                   177.
##  5 Leia Organa        Human      150    49                   177.
##  6 Owen Lars          Human      178   120                   177.
##  7 Beru Whitesun lars Human      165    75                   177.
##  8 R5-D4              Droid       97    32                   131.
##  9 Biggs Darklighter  Human      183    84                   177.
## 10 Obi-Wan Kenobi     Human      182    77                   177.
## # … with 77 more rows
…
